…
```r
elephants
```

```
## # A tibble: 288 x 3
##      age height sex  
##    <dbl>  <dbl> <chr>
##  1   1.4   120  M    
##  2  17.5   227  M    
##  3  12.8   235  M    
##  4  11.2   210  M    
##  5  12.7   220  M    
##  6  12.7   189  M    
##  7  12.2   225  M    
##  8  12.2   204  M    
##  9  28.2   266. M    
## 10  11.7   233  M    
## # ... with 278 more rows
```
…
```r
homerange
```

```
## # A tibble: 569 x 24
##    taxon common_name class order family genus species primarymethod n    
##    <chr> <chr>       <chr> <chr> <chr>  <chr> <chr>   <chr>         <chr>
##  1 lake~ american e~ acti~ angu~ angui~ angu~ rostra~ telemetry     16   
##  2 rive~ blacktail ~ acti~ cypr~ catos~ moxo~ poecil~ mark-recaptu~ <NA> 
##  3 rive~ central st~ acti~ cypr~ cypri~ camp~ anomal~ mark-recaptu~ 20   
##  4 rive~ rosyside d~ acti~ cypr~ cypri~ clin~ fundul~ mark-recaptu~ 26   
##  5 rive~ longnose d~ acti~ cypr~ cypri~ rhin~ catara~ mark-recaptu~ 17   
##  6 rive~ muskellunge acti~ esoc~ esoci~ esox  masqui~ telemetry     5    
##  7 mari~ pollack     acti~ gadi~ gadid~ poll~ pollac~ telemetry     2    
##  8 mari~ saithe      acti~ gadi~ gadid~ poll~ virens  telemetry     2    
##  9 mari~ lined surg~ acti~ perc~ acant~ acan~ lineat~ direct obser~ <NA> 
## 10 mari~ orangespin~ acti~ perc~ acant~ naso  litura~ telemetry     8    
## # ... with 559 more rows, and 15 more variables: mean_mass_g <dbl>,
## #   log10_mass <dbl>, alternative_mass_reference <chr>, mean_hra_m2 <dbl>,
## #   log10_hra <dbl>, hra_reference <chr>, realm <chr>, thermoregulation <chr>,
## #   locomotion <chr>, trophic_guild <chr>, dimension <chr>, preymass <dbl>,
## #   log10_preymass <dbl>, ppmr <dbl>, prey_size_reference <chr>
```
…
```r
library(palmerpenguins)
```


```r
penguins
```

```
## # A tibble: 344 x 8
##    species island bill_length_mm bill_depth_mm flipper_length_~ body_mass_g
##    <fct>   <fct>           <dbl>         <dbl>            <int>       <int>
##  1 Adelie  Torge~           39.1          18.7              181        3750
##  2 Adelie  Torge~           39.5          17.4              186        3800
##  3 Adelie  Torge~           40.3          18                195        3250
##  4 Adelie  Torge~           NA            NA                 NA          NA
##  5 Adelie  Torge~           36.7          19.3              193        3450
##  6 Adelie  Torge~           39.3          20.6              190        3650
##  7 Adelie  Torge~           38.9          17.8              181        3625
##  8 Adelie  Torge~           39.2          19.6              195        4675
##  9 Adelie  Torge~           34.1          18.1              193        3475
## 10 Adelie  Torge~           42            20.2              190        4250
## # ... with 334 more rows, and 2 more variables: sex <fct>, year <int>
```
…
