…
```
## `summarise()` has grouped output by 'continent'. You can override using the `.groups` argument.
```

```r
gapminder2
```

```
## # A tibble: 60 x 5
## # Groups:   continent [5]
##    continent year  min_lifeExp mean_lifeExp max_lifeExp
##    <fct>     <fct>       <dbl>        <dbl>       <dbl>
##  1 Africa    1952         30           39.1        52.7
##  2 Africa    1957         31.6         41.3        58.1
##  3 Africa    1962         32.8         43.3        60.2
##  4 Africa    1967         34.1         45.3        61.6
##  5 Africa    1972         35.4         47.5        64.3
##  6 Africa    1977         36.8         49.6        67.1
##  7 Africa    1982         38.4         51.6        69.9
##  8 Africa    1987         39.9         53.3        71.9
##  9 Africa    1992         23.6         53.6        73.6
## 10 Africa    1997         36.1         53.6        74.8
## # ... with 50 more rows
```
…
```r
g3<-gapminder%>%
  group_by(country)%>%
  filter(year=="1952" | year=="2007")%>%
  mutate(population_growth=pop-lag(pop,default=first(pop)))
g3
```

```
## # A tibble: 284 x 7
## # Groups:   country [142]
##    country     continent year  lifeExp      pop gdpPercap population_growth
##    <fct>       <fct>     <fct>   <dbl>    <int>     <dbl>             <int>
##  1 Afghanistan Asia      1952     28.8  8425333      779.                 0
##  2 Afghanistan Asia      2007     43.8 31889923      975.          23464590
##  3 Albania     Europe    1952     55.2  1282697     1601.                 0
##  4 Albania     Europe    2007     76.4  3600523     5937.           2317826
##  5 Algeria     Africa    1952     43.1  9279525     2449.                 0
##  6 Algeria     Africa    2007     72.3 33333216     6223.          24053691
##  7 Angola      Africa    1952     30.0  4232095     3521.                 0
##  8 Angola      Africa    2007     42.7 12420476     4797.           8188381
##  9 Argentina   Americas  1952     62.5 17876956     5911.                 0
## 10 Argentina   Americas  2007     75.3 40301927    12779.          22424971
## # ... with 274 more rows
```


```r
g3%>%
  arrange(desc(population_growth))
```

```
## # A tibble: 284 x 7
## # Groups:   country [142]
##    country       continent year  lifeExp        pop gdpPercap population_growth
##    <fct>         <fct>     <fct>   <dbl>      <int>     <dbl>             <int>
##  1 China         Asia      2007     73.0 1318683096     4959.         762419569
##  2 India         Asia      2007     64.7 1110396331     2452.         738396331
##  3 United States Americas  2007     78.2  301139947    42952.         143586947
##  4 Indonesia     Asia      2007     70.6  223547000     3541.         141495000
##  5 Brazil        Americas  2007     72.4  190010647     9066.         133408087
##  6 Pakistan      Asia      2007     65.5  169270617     2606.         127924057
##  7 Bangladesh    Asia      2007     64.1  150448339     1391.         103561480
##  8 Nigeria       Africa    2007     46.9  135031164     2014.         101912068
##  9 Mexico        Americas  2007     76.2  108700891    11978.          78556574
## 10 Philippines   Asia      2007     71.7   91077287     3190.          68638596
## # ... with 274 more rows
```
…
