…
```r
colleges
```

```
## # A tibble: 341 x 10
##    INSTNM CITY  STABBR ZIP   ADM_RATE SAT_AVG PCIP26 COSTT4_A C150_4_POOLED
##    <chr>  <chr> <chr>  <chr>    <dbl>   <dbl>  <dbl>    <dbl>         <dbl>
##  1 Gross~ El C~ CA     9202~       NA      NA 0.0016     7956        NA    
##  2 Colle~ Visa~ CA     9327~       NA      NA 0.0066     8109        NA    
##  3 Colle~ San ~ CA     9440~       NA      NA 0.0038     8278        NA    
##  4 Ventu~ Vent~ CA     9300~       NA      NA 0.0035     8407        NA    
##  5 Oxnar~ Oxna~ CA     9303~       NA      NA 0.0085     8516        NA    
##  6 Moorp~ Moor~ CA     9302~       NA      NA 0.0151     8577        NA    
##  7 Skyli~ San ~ CA     9406~       NA      NA 0          8580         0.233
##  8 Glend~ Glen~ CA     9120~       NA      NA 0.002      9181        NA    
##  9 Citru~ Glen~ CA     9174~       NA      NA 0.0021     9281        NA    
## 10 Fresn~ Fres~ CA     93741       NA      NA 0.0324     9370        NA    
## # ... with 331 more rows, and 1 more variable: PFTFTUG1_EF <dbl>
```


```r
college<-
  janitor::clean_names(colleges)
college
```

```
## # A tibble: 341 x 10
##    instnm city  stabbr zip   adm_rate sat_avg pcip26 costt4_a c150_4_pooled
##    <chr>  <chr> <chr>  <chr>    <dbl>   <dbl>  <dbl>    <dbl>         <dbl>
##  1 Gross~ El C~ CA     9202~       NA      NA 0.0016     7956        NA    
##  2 Colle~ Visa~ CA     9327~       NA      NA 0.0066     8109        NA    
##  3 Colle~ San ~ CA     9440~       NA      NA 0.0038     8278        NA    
##  4 Ventu~ Vent~ CA     9300~       NA      NA 0.0035     8407        NA    
##  5 Oxnar~ Oxna~ CA     9303~       NA      NA 0.0085     8516        NA    
##  6 Moorp~ Moor~ CA     9302~       NA      NA 0.0151     8577        NA    
##  7 Skyli~ San ~ CA     9406~       NA      NA 0          8580         0.233
##  8 Glend~ Glen~ CA     9120~       NA      NA 0.002      9181        NA    
##  9 Citru~ Glen~ CA     9174~       NA      NA 0.0021     9281        NA    
## 10 Fresn~ Fres~ CA     93741       NA      NA 0.0324     9370        NA    
## # ... with 331 more rows, and 1 more variable: pftftug1_ef <dbl>
```
…
