…
#### 2. Are these data “tidy” per the definitions of the tidyverse? How do you know? Are they in wide or long format?


```r
sydneybeaches
```

```
## # A tibble: 3,690 x 8
##    beach_id region    council   site   longitude latitude date  enterococci_cfu~
##       <dbl> <chr>     <chr>     <chr>      <dbl>    <dbl> <chr>            <dbl>
##  1       25 Sydney C~ Randwick~ Clove~      151.    -33.9 02/0~               19
##  2       25 Sydney C~ Randwick~ Clove~      151.    -33.9 06/0~                3
##  3       25 Sydney C~ Randwick~ Clove~      151.    -33.9 12/0~                2
##  4       25 Sydney C~ Randwick~ Clove~      151.    -33.9 18/0~               13
##  5       25 Sydney C~ Randwick~ Clove~      151.    -33.9 30/0~                8
##  6       25 Sydney C~ Randwick~ Clove~      151.    -33.9 05/0~                7
##  7       25 Sydney C~ Randwick~ Clove~      151.    -33.9 11/0~               11
##  8       25 Sydney C~ Randwick~ Clove~      151.    -33.9 23/0~               97
##  9       25 Sydney C~ Randwick~ Clove~      151.    -33.9 07/0~                3
## 10       25 Sydney C~ Randwick~ Clove~      151.    -33.9 25/0~                0
## # ... with 3,680 more rows
```
…
#### 3. We are only interested in the variables site, date, and enterococci_cfu_100ml. Make a new object focused on these variables only. Name the object `sydneybeaches_long`


```r
sydneybeaches_long<-
  sydneybeaches%>%
  select(site, date, enterococci_cfu_100ml)
sydneybeaches_long
```

```
## # A tibble: 3,690 x 3
##    site           date       enterococci_cfu_100ml
##    <chr>          <chr>                      <dbl>
##  1 Clovelly Beach 02/01/2013                    19
##  2 Clovelly Beach 06/01/2013                     3
##  3 Clovelly Beach 12/01/2013                     2
##  4 Clovelly Beach 18/01/2013                    13
##  5 Clovelly Beach 30/01/2013                     8
##  6 Clovelly Beach 05/02/2013                     7
##  7 Clovelly Beach 11/02/2013                    11
##  8 Clovelly Beach 23/02/2013                    97
##  9 Clovelly Beach 07/03/2013                     3
## 10 Clovelly Beach 25/03/2013                     0
## # ... with 3,680 more rows
```
…
#### 5. Pivot the data back so that the dates are data and not column names.


```r
sydneybeaches_long2<-
  sydneybeaches_wide%>%
  pivot_longer(-site,
               names_to="date",
               values_to="enterococci_cfu_100ml")
sydneybeaches_long2
```

```
## # A tibble: 3,784 x 3
##    site           date       enterococci_cfu_100ml
##    <chr>          <chr>                      <dbl>
##  1 Clovelly Beach 02/01/2013                    19
##  2 Clovelly Beach 06/01/2013                     3
##  3 Clovelly Beach 12/01/2013                     2
##  4 Clovelly Beach 18/01/2013                    13
##  5 Clovelly Beach 30/01/2013                     8
##  6 Clovelly Beach 05/02/2013                     7
##  7 Clovelly Beach 11/02/2013                    11
##  8 Clovelly Beach 23/02/2013                    97
##  9 Clovelly Beach 07/03/2013                     3
## 10 Clovelly Beach 25/03/2013                     0
## # ... with 3,774 more rows
```

#### 6.We haven’t dealt much with dates yet, but separate the date into columns day, month, and year. Do this on the sydneybeaches_long data.


```r
sydneybeachdate<-
sydneybeaches_long%>%
  separate(date, into=c("month","day","year"),
           sep="/")
sydneybeachdate
```

```
## # A tibble: 3,690 x 5
##    site           month day   year  enterococci_cfu_100ml
##    <chr>          <chr> <chr> <chr>                 <dbl>
##  1 Clovelly Beach 02    01    2013                     19
##  2 Clovelly Beach 06    01    2013                      3
##  3 Clovelly Beach 12    01    2013                      2
##  4 Clovelly Beach 18    01    2013                     13
##  5 Clovelly Beach 30    01    2013                      8
##  6 Clovelly Beach 05    02    2013                      7
##  7 Clovelly Beach 11    02    2013                     11
##  8 Clovelly Beach 23    02    2013                     97
##  9 Clovelly Beach 07    03    2013                      3
## 10 Clovelly Beach 25    03    2013                      0
## # ... with 3,680 more rows
```
…
```r
sydneybeachdate%>%
  group_by(site,year)%>%
  summarize(mean_enterococci=mean(enterococci_cfu_100ml, na.rm=T))%>%
  arrange(year)
```

```
## `summarise()` has grouped output by 'site'. You can override using the `.groups` argument.
```

```
## # A tibble: 66 x 3
## # Groups:   site [11]
##    site                    year  mean_enterococci
##    <chr>                   <chr>            <dbl>
##  1 Bondi Beach             2013             32.2 
##  2 Bronte Beach            2013             26.8 
##  3 Clovelly Beach          2013              9.28
##  4 Coogee Beach            2013             39.7 
##  5 Gordons Bay (East)      2013             24.8 
##  6 Little Bay Beach        2013            122.  
##  7 Malabar Beach           2013            101.  
##  8 Maroubra Beach          2013             47.1 
##  9 South Maroubra Beach    2013             39.3 
## 10 South Maroubra Rockpool 2013             96.4 
## # ... with 56 more rows
```
…
```
## `summarise()` has grouped output by 'site'. You can override using the `.groups` argument.
```

```r
sydneybeachdate_avg
```

```
## # A tibble: 66 x 3
## # Groups:   site [11]
##    site                    year  mean_enterococci
##    <chr>                   <chr>            <dbl>
##  1 Bondi Beach             2013             32.2 
##  2 Bronte Beach            2013             26.8 
##  3 Clovelly Beach          2013              9.28
##  4 Coogee Beach            2013             39.7 
##  5 Gordons Bay (East)      2013             24.8 
##  6 Little Bay Beach        2013            122.  
##  7 Malabar Beach           2013            101.  
##  8 Maroubra Beach          2013             47.1 
##  9 South Maroubra Beach    2013             39.3 
## 10 South Maroubra Rockpool 2013             96.4 
## # ... with 56 more rows
```
…
