…
```r
heartrate3<-
  heartrate2%>%
  separate(patient,
           into=c("patient","sex"),
           sep="_")%>%
  pivot_longer(-c(patient, sex),
               names_to="drug",
               values_to="heartrate")%>%
  arrange(patient, drug)
heartrate3
```

```
## # A tibble: 24 x 4
##    patient sex   drug  heartrate
##    <chr>   <chr> <chr>     <dbl>
##  1 Frank   m     a            84
##  2 Frank   m     b            84
##  3 Frank   m     c            88
##  4 Frank   m     d            76
##  5 Hawkeye m     a            64
##  6 Hawkeye m     b            66
##  7 Hawkeye m     c            68
##  8 Hawkeye m     d            64
##  9 Henry   m     a            88
## 10 Henry   m     b            87
## # ... with 14 more rows
```
…
```r
beachbugs
```

```
## # A tibble: 66 x 3
##     year site                    buglevels
##    <dbl> <chr>                       <dbl>
##  1  2013 Bondi Beach                 32.2 
##  2  2013 Bronte Beach                26.8 
##  3  2013 Clovelly Beach               9.28
##  4  2013 Coogee Beach                39.7 
##  5  2013 Gordons Bay (East)          24.8 
##  6  2013 Little Bay Beach           122.  
##  7  2013 Malabar Beach              101.  
##  8  2013 Maroubra Beach              47.1 
##  9  2013 South Maroubra Beach        39.3 
## 10  2013 South Maroubra Rockpool     96.4 
## # ... with 56 more rows
```
…
```r
beachbugsl<-
  beachbugsw%>%
  pivot_longer(
    "Bondi Beach":"Tamarama Beach",
    names_to = "beach",
    values_to="buglevels")%>%
  arrange(desc(buglevels))
beachbugsl
```

```
## # A tibble: 66 x 3
##     year beach                   buglevels
##    <dbl> <chr>                       <dbl>
##  1  2013 Little Bay Beach            122. 
##  2  2018 South Maroubra Rockpool     112. 
##  3  2013 Malabar Beach               101. 
##  4  2013 South Maroubra Rockpool      96.4
##  5  2016 Malabar Beach                91.0
##  6  2015 Malabar Beach                66.9
##  7  2016 Bronte Beach                 61.3
##  8  2016 Coogee Beach                 59.5
##  9  2016 South Maroubra Rockpool      59.3
## 10  2018 Little Bay Beach             59.1
## # ... with 56 more rows
```
