…
```
## # A tibble: 1 x 9
##   Accession Family  Genus  Country State   County Locality       Date  Collector
##       <dbl> <chr>   <chr>  <chr>   <chr>   <chr>  <chr>          <chr> <chr>    
## 1   9038509 Telemi~ Usofi~ USA     Califo~ Butte  Dry Creek Rd,~ 2/3/~ RO Schus~
```


```r
spiders_all<-bind_rows(spider_list)
spiders_all
```

```
## # A tibble: 270 x 9
##    Accession Family  Genus  Country State  County  Locality     Date  Collector 
##        <dbl> <chr>   <chr>  <chr>   <chr>  <chr>   <chr>        <chr> <chr>     
##  1   9038521 Telemi~ Usofi~ USA     Calif~ Alameda Berkeley     2/3/~ LM Smith  
##  2   9038522 Telemi~ Usofi~ USA     Calif~ Alameda Castro Vall~ 24/3~ WM Pearce 
##  3   9038523 Telemi~ Usofi~ USA     Calif~ Alameda Niles, off ~ 2/1/~ V Roth    
##  4   9038524 Telemi~ Usofi~ USA     Calif~ Alameda Oakland      18/2~ WG Bentin~
##  5   9038525 Telemi~ Usofi~ USA     Calif~ Alameda Oakland      25/1~ R Schuster
##  6   9038526 Telemi~ Usofi~ USA     Calif~ Alameda Oakland      18/2~ WC Bentin~
##  7   9038527 Telemi~ Usofi~ USA     Calif~ Alameda Oakland      10/1~ J Helfer  
##  8  90386281 Telemi~ Usofi~ USA     Calif~ Alameda Oakland, Mo~ 17/1~ Roth, Sch~
##  9   9038529 Telemi~ Usofi~ USA     Calif~ Alameda Oakland, Mo~ 17/1~ Roth, Sch~
## 10  90387441 Telemi~ Usofi~ USA     Calif~ Alameda Berkeley, C~ 17/2~ PR Craig,~
## # ... with 260 more rows
```
…
```r
spiders_loc
```

```
## # A tibble: 270 x 3
##    Accession Latitude Longitude
##        <dbl>    <dbl>     <dbl>
##  1   9038521     37.9     -122.
##  2   9038522     37.7     -122.
##  3   9038523     37.6     -122.
##  4   9038524     37.8     -122.
##  5   9038525     37.8     -122.
##  6   9038526     37.8     -122.
##  7   9038527     37.8     -122.
##  8  90386281     37.8     -122.
##  9   9038529     37.8     -122.
## 10  90387441     37.9     -122.
## # ... with 260 more rows
```
…
#Practice
#### Make a new column that labels each specimen as occurring in a cave or on the surface. The word “Cave” is part of the locality information.


```r
spiders
```

```
## # A tibble: 269 x 11
##    accession family  genus  country state county locality   date       collector
##        <dbl> <chr>   <chr>  <chr>   <chr> <chr>  <chr>      <date>     <chr>    
##  1   9038521 Telemi~ Usofi~ USA     Cali~ Alame~ Berkeley   2019-03-02 LM Smith 
##  2   9038522 Telemi~ Usofi~ USA     Cali~ Alame~ Castro Va~ 2019-03-24 WM Pearce
##  3   9038523 Telemi~ Usofi~ USA     Cali~ Alame~ Niles, of~ 2019-01-02 V Roth   
##  4   9038524 Telemi~ Usofi~ USA     Cali~ Alame~ Oakland    2019-02-18 WG Benti~
##  5   9038525 Telemi~ Usofi~ USA     Cali~ Alame~ Oakland    2019-01-25 R Schust~
##  6   9038526 Telemi~ Usofi~ USA     Cali~ Alame~ Oakland    2019-02-18 WC Benti~
##  7   9038527 Telemi~ Usofi~ USA     Cali~ Alame~ Oakland    2019-12-10 J Helfer 
##  8  90386281 Telemi~ Usofi~ USA     Cali~ Alame~ Oakland, ~ 2019-10-17 Roth, Sc~
##  9   9038529 Telemi~ Usofi~ USA     Cali~ Alame~ Oakland, ~ 2019-10-17 Roth, Sc~
## 10  90387441 Telemi~ Usofi~ USA     Cali~ Alame~ Berkeley,~ 2019-02-17 PR Craig~
## # ... with 259 more rows, and 2 more variables: latitude <dbl>, longitude <dbl>
```
…
