…
```
## [1] "birds"         "lake fishes"   "lizards"       "mammals"      
## [5] "marine fishes" "river fishes"  "snakes"        "tortoises"    
## [9] "turtles"
```

```r
taxa<-select(homerange2, taxon, common_name, class, order, family, genus, species)
taxa
```

```
## # A tibble: 569 x 7
##    taxon     common_name       class      order     family    genus    species  
##    <fct>     <chr>             <chr>      <fct>     <chr>     <chr>    <chr>    
##  1 lake fis~ american eel      actinopte~ anguilli~ anguilli~ anguilla rostrata 
##  2 river fi~ blacktail redhor~ actinopte~ cyprinif~ catostom~ moxosto~ poecilura
##  3 river fi~ central stonerol~ actinopte~ cyprinif~ cyprinid~ campost~ anomalum 
##  4 river fi~ rosyside dace     actinopte~ cyprinif~ cyprinid~ clinost~ funduloi~
##  5 river fi~ longnose dace     actinopte~ cyprinif~ cyprinid~ rhinich~ cataract~
##  6 river fi~ muskellunge       actinopte~ esocifor~ esocidae  esox     masquino~
##  7 marine f~ pollack           actinopte~ gadiform~ gadidae   pollach~ pollachi~
##  8 marine f~ saithe            actinopte~ gadiform~ gadidae   pollach~ virens   
##  9 marine f~ lined surgeonfish actinopte~ percifor~ acanthur~ acanthu~ lineatus 
## 10 marine f~ orangespine unic~ actinopte~ percifor~ acanthur~ naso     lituratus
## # ... with 559 more rows
```

#### 5. The variable `taxon` identifies the large, common name groups of the species represented in homerange. Make a table the shows the counts for each of these `taxon`.


```r
#birds
#taxon 1/9
tweet<-grepl("birds", taxa$taxon)
tweeter<-filter(taxa, taxon=="birds")
tweeter$taxa_recorded <- c(sum(tweet))
tweeter
```

```
## # A tibble: 140 x 8
##    taxon common_name     class order     family    genus  species  taxa_recorded
##    <fct> <chr>           <chr> <fct>     <chr>     <chr>  <chr>            <int>
##  1 birds golden eagle    aves  accipitr~ accipitr~ aquila chrysae~           140
##  2 birds common buzzard  aves  accipitr~ accipitr~ buteo  buteo              140
##  3 birds short-toed sna~ aves  accipitr~ accipitr~ circa~ gallicus           140
##  4 birds Bonelli's eagle aves  accipitr~ accipitr~ hiera~ fasciat~           140
##  5 birds booted eagle    aves  accipitr~ accipitr~ hiera~ pennatus           140
##  6 birds Egyptian vultu~ aves  accipitr~ accipitr~ neoph~ percnop~           140
##  7 birds gadwall         aves  anserifo~ anatidae  anas   strepera           140
##  8 birds northern brown~ aves  apterygi~ apterygi~ apter~ austral~           140
##  9 birds European night~ aves  caprimul~ caprimul~ capri~ europae~           140
## 10 birds oystercatcher   aves  charadri~ haematop~ haema~ ostrale~           140
## # ... with 130 more rows
```
…
```r
#mammals
#taxon 4/9
mittens<-grepl("mammals", taxa$taxon)
snuggle_time<-filter(taxa, taxon=="mammals")
snuggle_time$taxa_recorded <-c(sum(mittens))
snuggle_time
```

```
## # A tibble: 238 x 8
##    taxon  common_name    class  order   family    genus   species  taxa_recorded
##    <fct>  <chr>          <chr>  <fct>   <chr>     <chr>   <chr>            <int>
##  1 mamma~ giant golden ~ mamma~ afroso~ chrysoch~ chryso~ trevely~           238
##  2 mamma~ Grant's golde~ mamma~ afroso~ chrysoch~ eremit~ granti             238
##  3 mamma~ pronghorn      mamma~ artiod~ antiloca~ antilo~ america~           238
##  4 mamma~ impala         mamma~ artiod~ bovidae   aepyce~ melampus           238
##  5 mamma~ hartebeest     mamma~ artiod~ bovidae   alcela~ buselap~           238
##  6 mamma~ barbary sheep  mamma~ artiod~ bovidae   ammotr~ lervia             238
##  7 mamma~ American bison mamma~ artiod~ bovidae   bison   bison              238
##  8 mamma~ European bison mamma~ artiod~ bovidae   bison   bonasus            238
##  9 mamma~ goat           mamma~ artiod~ bovidae   capra   hircus             238
## 10 mamma~ Spanish ibex   mamma~ artiod~ bovidae   capra   pyrenai~           238
## # ... with 228 more rows
```



```r
#marine fishes
#taxon 5/9
salt_face<-grepl("marine fishes", taxa$taxon)
fish_and_chips<-filter(taxa, taxon=="marine fishes")
fish_and_chips$taxa_recorded <-c(sum(salt_face))
fish_and_chips
```

```
## # A tibble: 90 x 8
##    taxon   common_name      class   order  family  genus  species  taxa_recorded
##    <fct>   <chr>            <chr>   <fct>  <chr>   <chr>  <chr>            <int>
##  1 marine~ pollack          actino~ gadif~ gadidae polla~ pollach~            90
##  2 marine~ saithe           actino~ gadif~ gadidae polla~ virens              90
##  3 marine~ lined surgeonfi~ actino~ perci~ acanth~ acant~ lineatus            90
##  4 marine~ orangespine uni~ actino~ perci~ acanth~ naso   liturat~            90
##  5 marine~ bluespine unico~ actino~ perci~ acanth~ naso   unicorn~            90
##  6 marine~ redlip blenny    actino~ perci~ blenni~ ophio~ atlanti~            90
##  7 marine~ giant trevally   actino~ perci~ carang~ caranx ignobil~            90
##  8 marine~ eastern triangu~ actino~ perci~ chaeto~ chaet~ barones~            90
##  9 marine~ Tahititan butte~ actino~ perci~ chaeto~ chaet~ trichro~            90
## 10 marine~ chevron butterf~ actino~ perci~ chaeto~ chaet~ trifasc~            90
## # ... with 80 more rows
```
…
```r
#snakes
#taxon 7/9
danger_noodle<-grepl("snakes", taxa$taxon)
wiggle_boi<-filter(taxa, taxon=="snakes")
wiggle_boi$taxa_recorded <-c(sum(danger_noodle))
wiggle_boi
```

```
## # A tibble: 41 x 8
##    taxon  common_name     class  order family  genus  species      taxa_recorded
##    <fct>  <chr>           <chr>  <fct> <chr>   <chr>  <chr>                <int>
##  1 snakes western worm s~ repti~ squa~ colubr~ carph~ vermis                  41
##  2 snakes eastern worm s~ repti~ squa~ colubr~ carph~ viridis                 41
##  3 snakes racer           repti~ squa~ colubr~ colub~ constrictor             41
##  4 snakes yellow bellied~ repti~ squa~ colubr~ colub~ constrictor~            41
##  5 snakes ringneck snake  repti~ squa~ colubr~ diado~ punctatus               41
##  6 snakes eastern indigo~ repti~ squa~ colubr~ dryma~ couperi                 41
##  7 snakes great plains r~ repti~ squa~ colubr~ elaphe guttata emo~            41
##  8 snakes western ratsna~ repti~ squa~ colubr~ elaphe obsoleta                41
##  9 snakes hognose snake   repti~ squa~ colubr~ heter~ platirhinos             41
## 10 snakes European whips~ repti~ squa~ colubr~ hiero~ viridiflavus            41
## # ... with 31 more rows
```
…
```r
taxa_take2 <- rbind(tweeter, splish, parthenogenisis, snuggle_time, fish_and_chips, salmon_run, wiggle_boi, winner_winner, splash)
taxa_take2
```

```
## # A tibble: 569 x 8
##    taxon common_name     class order     family    genus  species  taxa_recorded
##    <fct> <chr>           <chr> <fct>     <chr>     <chr>  <chr>            <int>
##  1 birds golden eagle    aves  accipitr~ accipitr~ aquila chrysae~           140
##  2 birds common buzzard  aves  accipitr~ accipitr~ buteo  buteo              140
##  3 birds short-toed sna~ aves  accipitr~ accipitr~ circa~ gallicus           140
##  4 birds Bonelli's eagle aves  accipitr~ accipitr~ hiera~ fasciat~           140
##  5 birds booted eagle    aves  accipitr~ accipitr~ hiera~ pennatus           140
##  6 birds Egyptian vultu~ aves  accipitr~ accipitr~ neoph~ percnop~           140
##  7 birds gadwall         aves  anserifo~ anatidae  anas   strepera           140
##  8 birds northern brown~ aves  apterygi~ apterygi~ apter~ austral~           140
##  9 birds European night~ aves  caprimul~ caprimul~ capri~ europae~           140
## 10 birds oystercatcher   aves  charadri~ haematop~ haema~ ostrale~           140
## # ... with 559 more rows
```
…
```r
homerange2$trophic_guild<-as.factor(homerange2$trophic_guild)
levels(homerange2$trophic_guild)
```

```
## [1] "carnivore" "herbivore"
```

```r
filter(homerange2, trophic_guild=="carnivore")
```

```
## # A tibble: 342 x 24
##    taxon common_name class order family genus species primary_method n    
##    <fct> <chr>       <chr> <fct> <chr>  <chr> <chr>   <chr>          <chr>
##  1 lake~ american e~ acti~ angu~ angui~ angu~ rostra~ telemetry      16   
##  2 rive~ blacktail ~ acti~ cypr~ catos~ moxo~ poecil~ mark-recapture <NA> 
##  3 rive~ central st~ acti~ cypr~ cypri~ camp~ anomal~ mark-recapture 20   
##  4 rive~ rosyside d~ acti~ cypr~ cypri~ clin~ fundul~ mark-recapture 26   
##  5 rive~ longnose d~ acti~ cypr~ cypri~ rhin~ catara~ mark-recapture 17   
##  6 rive~ muskellunge acti~ esoc~ esoci~ esox  masqui~ telemetry      5    
##  7 mari~ pollack     acti~ gadi~ gadid~ poll~ pollac~ telemetry      2    
##  8 mari~ saithe      acti~ gadi~ gadid~ poll~ virens  telemetry      2    
##  9 mari~ giant trev~ acti~ perc~ caran~ cara~ ignobi~ telemetry      4    
## 10 lake~ rock bass   acti~ perc~ centr~ ambl~ rupest~ mark-recapture 16   
## # ... with 332 more rows, and 15 more variables: mean_mass_g <dbl>,
## #   log10_mass <dbl>, alternative_mass_reference <chr>, mean_hra_m2 <dbl>,
## #   log10_hra <dbl>, hra_reference <chr>, realm <chr>, thermoregulation <chr>,
## #   locomtion <chr>, trophic_guild <fct>, dimension <chr>, preymass <dbl>,
## #   log10_preymass <dbl>, ppmr <dbl>, prey_size_reference <chr>
```
*There are 24 carnivores*

```r
filter(homerange2, trophic_guild=="herbivore")
```

```
## # A tibble: 227 x 24
##    taxon common_name class order family genus species primary_method n    
##    <fct> <chr>       <chr> <fct> <chr>  <chr> <chr>   <chr>          <chr>
##  1 mari~ lined surg~ acti~ perc~ acant~ acan~ lineat~ direct observ~ <NA> 
##  2 mari~ orangespin~ acti~ perc~ acant~ naso  litura~ telemetry      8    
##  3 mari~ bluespine ~ acti~ perc~ acant~ naso  unicor~ telemetry      7    
##  4 mari~ redlip ble~ acti~ perc~ blenn~ ophi~ atlant~ direct observ~ 20   
##  5 mari~ bermuda ch~ acti~ perc~ kypho~ kyph~ sectat~ telemetry      11   
##  6 mari~ cherubfish  acti~ perc~ pomac~ cent~ argi    direct observ~ <NA> 
##  7 mari~ damselfish  acti~ perc~ pomac~ chro~ chromis direct observ~ <NA> 
##  8 mari~ twinspot d~ acti~ perc~ pomac~ chry~ biocel~ direct observ~ 18   
##  9 mari~ wards dams~ acti~ perc~ pomac~ poma~ wardi   direct observ~ <NA> 
## 10 mari~ australian~ acti~ perc~ pomac~ steg~ apical~ direct observ~ <NA> 
## # ... with 217 more rows, and 15 more variables: mean_mass_g <dbl>,
## #   log10_mass <dbl>, alternative_mass_reference <chr>, mean_hra_m2 <dbl>,
## #   log10_hra <dbl>, hra_reference <chr>, realm <chr>, thermoregulation <chr>,
## #   locomtion <chr>, trophic_guild <fct>, dimension <chr>, preymass <dbl>,
## #   log10_preymass <dbl>, ppmr <dbl>, prey_size_reference <chr>
```
…
```r
meat_munch<-filter(homerange2, trophic_guild=="carnivore")
vegan<-filter(homerange2, trophic_guild=="herbivore")
meat_munch
```

```
## # A tibble: 342 x 24
##    taxon common_name class order family genus species primary_method n    
##    <fct> <chr>       <chr> <fct> <chr>  <chr> <chr>   <chr>          <chr>
##  1 lake~ american e~ acti~ angu~ angui~ angu~ rostra~ telemetry      16   
##  2 rive~ blacktail ~ acti~ cypr~ catos~ moxo~ poecil~ mark-recapture <NA> 
##  3 rive~ central st~ acti~ cypr~ cypri~ camp~ anomal~ mark-recapture 20   
##  4 rive~ rosyside d~ acti~ cypr~ cypri~ clin~ fundul~ mark-recapture 26   
##  5 rive~ longnose d~ acti~ cypr~ cypri~ rhin~ catara~ mark-recapture 17   
##  6 rive~ muskellunge acti~ esoc~ esoci~ esox  masqui~ telemetry      5    
##  7 mari~ pollack     acti~ gadi~ gadid~ poll~ pollac~ telemetry      2    
##  8 mari~ saithe      acti~ gadi~ gadid~ poll~ virens  telemetry      2    
##  9 mari~ giant trev~ acti~ perc~ caran~ cara~ ignobi~ telemetry      4    
## 10 lake~ rock bass   acti~ perc~ centr~ ambl~ rupest~ mark-recapture 16   
## # ... with 332 more rows, and 15 more variables: mean_mass_g <dbl>,
## #   log10_mass <dbl>, alternative_mass_reference <chr>, mean_hra_m2 <dbl>,
## #   log10_hra <dbl>, hra_reference <chr>, realm <chr>, thermoregulation <chr>,
## #   locomtion <chr>, trophic_guild <fct>, dimension <chr>, preymass <dbl>,
## #   log10_preymass <dbl>, ppmr <dbl>, prey_size_reference <chr>
```

```r
vegan
```

```
## # A tibble: 227 x 24
##    taxon common_name class order family genus species primary_method n    
##    <fct> <chr>       <chr> <fct> <chr>  <chr> <chr>   <chr>          <chr>
##  1 mari~ lined surg~ acti~ perc~ acant~ acan~ lineat~ direct observ~ <NA> 
##  2 mari~ orangespin~ acti~ perc~ acant~ naso  litura~ telemetry      8    
##  3 mari~ bluespine ~ acti~ perc~ acant~ naso  unicor~ telemetry      7    
##  4 mari~ redlip ble~ acti~ perc~ blenn~ ophi~ atlant~ direct observ~ 20   
##  5 mari~ bermuda ch~ acti~ perc~ kypho~ kyph~ sectat~ telemetry      11   
##  6 mari~ cherubfish  acti~ perc~ pomac~ cent~ argi    direct observ~ <NA> 
##  7 mari~ damselfish  acti~ perc~ pomac~ chro~ chromis direct observ~ <NA> 
##  8 mari~ twinspot d~ acti~ perc~ pomac~ chry~ biocel~ direct observ~ 18   
##  9 mari~ wards dams~ acti~ perc~ pomac~ poma~ wardi   direct observ~ <NA> 
## 10 mari~ australian~ acti~ perc~ pomac~ steg~ apical~ direct observ~ <NA> 
## # ... with 217 more rows, and 15 more variables: mean_mass_g <dbl>,
## #   log10_mass <dbl>, alternative_mass_reference <chr>, mean_hra_m2 <dbl>,
## #   log10_hra <dbl>, hra_reference <chr>, realm <chr>, thermoregulation <chr>,
## #   locomtion <chr>, trophic_guild <fct>, dimension <chr>, preymass <dbl>,
## #   log10_preymass <dbl>, ppmr <dbl>, prey_size_reference <chr>
```
…
#### 10. As measured by the data, which snake species has the smallest homerange? Show all of your work, please. Look this species up online and tell me about it! Snake is found in taxon column


```r
homerange4<-select(homerange2, taxon,common_name,class,order,family,genus,species,mean_hra_m2)
snek<-filter(homerange4, taxon=="snakes")
snek
```

```
## # A tibble: 41 x 8
##    taxon  common_name     class   order  family  genus  species      mean_hra_m2
##    <fct>  <chr>           <chr>   <fct>  <chr>   <chr>  <chr>              <dbl>
##  1 snakes western worm s~ reptil~ squam~ colubr~ carph~ vermis               700
##  2 snakes eastern worm s~ reptil~ squam~ colubr~ carph~ viridis              253
##  3 snakes racer           reptil~ squam~ colubr~ colub~ constrictor       151000
##  4 snakes yellow bellied~ reptil~ squam~ colubr~ colub~ constrictor~      114500
##  5 snakes ringneck snake  reptil~ squam~ colubr~ diado~ punctatus           6476
##  6 snakes eastern indigo~ reptil~ squam~ colubr~ dryma~ couperi          1853000
##  7 snakes great plains r~ reptil~ squam~ colubr~ elaphe guttata emo~      150600
##  8 snakes western ratsna~ reptil~ squam~ colubr~ elaphe obsoleta           46000
##  9 snakes hognose snake   reptil~ squam~ colubr~ heter~ platirhinos       516375
## 10 snakes European whips~ reptil~ squam~ colubr~ hiero~ viridiflavus      110900
## # ... with 31 more rows
```
…
