…
```r
mammals <- rename(mammals, genus=Genus, wean_mass="wean mass", max_life="max. life", litter_size="litter size", litters_per_year="litters/year")
```


```r
filter(fish, lakeid =="AL")
```

```
## # A tibble: 383 x 6
##    lakeid fish_id annnumber length radii_length_mm scalelength
##    <chr>    <dbl> <chr>      <dbl>           <dbl>       <dbl>
##  1 AL         299 EDGE         167            2.70        2.70
##  2 AL         299 2            167            2.04        2.70
##  3 AL         299 1            167            1.31        2.70
##  4 AL         300 EDGE         175            3.02        3.02
##  5 AL         300 3            175            2.67        3.02
##  6 AL         300 2            175            2.14        3.02
##  7 AL         300 1            175            1.23        3.02
##  8 AL         301 EDGE         194            3.34        3.34
##  9 AL         301 3            194            2.97        3.34
## 10 AL         301 2            194            2.29        3.34
## # ... with 373 more rows
```


```r
filter(fish, length>=350)
```

```
## # A tibble: 890 x 6
##    lakeid fish_id annnumber length radii_length_mm scalelength
##    <chr>    <dbl> <chr>      <dbl>           <dbl>       <dbl>
##  1 AL         306 EDGE         350            6.94        6.94
##  2 AL         306 10           350            6.46        6.94
##  3 AL         306 9            350            6.16        6.94
##  4 AL         306 8            350            5.88        6.94
##  5 AL         306 7            350            5.42        6.94
##  6 AL         306 6            350            4.90        6.94
##  7 AL         306 5            350            4.46        6.94
##  8 AL         306 4            350            3.75        6.94
##  9 AL         306 3            350            2.93        6.94
## 10 AL         306 2            350            2.14        6.94
## # ... with 880 more rows
```


```r
filter(fish, lakeid!="AL")
```

```
## # A tibble: 3,650 x 6
##    lakeid fish_id annnumber length radii_length_mm scalelength
##    <chr>    <dbl> <chr>      <dbl>           <dbl>       <dbl>
##  1 AR         269 EDGE         140            2.01        2.01
##  2 AR         269 1            140            1.48        2.01
##  3 AR         270 EDGE         193            2.66        2.66
##  4 AR         270 3            193            2.39        2.66
##  5 AR         270 2            193            2.03        2.66
##  6 AR         270 1            193            1.42        2.66
##  7 AR         271 EDGE         220            3.50        3.50
##  8 AR         271 5            220            3.13        3.50
##  9 AR         271 4            220            2.86        3.50
## 10 AR         271 3            220            2.63        3.50
## # ... with 3,640 more rows
```
…
```r
filter(fish, near(radii_length_mm, 2, tol=0.2))
```

```
## # A tibble: 291 x 6
##    lakeid fish_id annnumber length radii_length_mm scalelength
##    <chr>    <dbl> <chr>      <dbl>           <dbl>       <dbl>
##  1 AL         299 2            167            2.04        2.70
##  2 AL         300 2            175            2.14        3.02
##  3 AL         302 2            324            2.19        6.07
##  4 AL         303 2            325            2.04        6.79
##  5 AL         306 2            350            2.14        6.94
##  6 AL         308 2            355            1.86        6.67
##  7 AL         312 2            367            2.17        6.81
##  8 AL         313 2            367            2.06        6.47
##  9 AL         315 2            372            2.04        6.47
## 10 AL         316 2            372            1.82        6.35
## # ... with 281 more rows
```


```r
filter(fish, lakeid=="BO")
```

```
## # A tibble: 197 x 6
##    lakeid fish_id annnumber length radii_length_mm scalelength
##    <chr>    <dbl> <chr>      <dbl>           <dbl>       <dbl>
##  1 BO         389 EDGE         104           1.50         1.50
##  2 BO         389 1            104           0.736        1.50
##  3 BO         390 EDGE         105           1.59         1.59
##  4 BO         390 1            105           0.698        1.59
##  5 BO         391 EDGE         107           1.43         1.43
##  6 BO         391 1            107           0.695        1.43
##  7 BO         392 EDGE         124           2.11         2.11
##  8 BO         392 2            124           1.36         2.11
##  9 BO         392 1            124           0.792        2.11
## 10 BO         393 EDGE         141           2.16         2.16
## # ... with 187 more rows
```


```r
filter(fish, lakeid!="AR")
```

```
## # A tibble: 3,771 x 6
##    lakeid fish_id annnumber length radii_length_mm scalelength
##    <chr>    <dbl> <chr>      <dbl>           <dbl>       <dbl>
##  1 AL         299 EDGE         167            2.70        2.70
##  2 AL         299 2            167            2.04        2.70
##  3 AL         299 1            167            1.31        2.70
##  4 AL         300 EDGE         175            3.02        3.02
##  5 AL         300 3            175            2.67        3.02
##  6 AL         300 2            175            2.14        3.02
##  7 AL         300 1            175            1.23        3.02
##  8 AL         301 EDGE         194            3.34        3.34
##  9 AL         301 3            194            2.97        3.34
## 10 AL         301 2            194            2.29        3.34
## # ... with 3,761 more rows
```


```r
filter(fish, near(scalelength, 8, tol=0.25))
```

```
## # A tibble: 236 x 6
##    lakeid fish_id annnumber length radii_length_mm scalelength
##    <chr>    <dbl> <chr>      <dbl>           <dbl>       <dbl>
##  1 AL         309 EDGE         355            7.89        7.89
##  2 AL         309 13           355            7.56        7.89
##  3 AL         309 12           355            7.36        7.89
##  4 AL         309 11           355            7.16        7.89
##  5 AL         309 10           355            6.77        7.89
##  6 AL         309 9            355            6.39        7.89
##  7 AL         309 8            355            5.96        7.89
##  8 AL         309 7            355            5.44        7.89
##  9 AL         309 6            355            4.74        7.89
## 10 AL         309 5            355            4.06        7.89
## # ... with 226 more rows
```


```r
filter(fish, between(scalelength, 2, 4))
```

```
## # A tibble: 723 x 6
##    lakeid fish_id annnumber length radii_length_mm scalelength
##    <chr>    <dbl> <chr>      <dbl>           <dbl>       <dbl>
##  1 AL         299 EDGE         167            2.70        2.70
##  2 AL         299 2            167            2.04        2.70
##  3 AL         299 1            167            1.31        2.70
##  4 AL         300 EDGE         175            3.02        3.02
##  5 AL         300 3            175            2.67        3.02
##  6 AL         300 2            175            2.14        3.02
##  7 AL         300 1            175            1.23        3.02
##  8 AL         301 EDGE         194            3.34        3.34
##  9 AL         301 3            194            2.97        3.34
## 10 AL         301 2            194            2.29        3.34
## # ... with 713 more rows
```


```r
filter(fish, lakeid=="AL" & length>350)
```

```
## # A tibble: 314 x 6
##    lakeid fish_id annnumber length radii_length_mm scalelength
##    <chr>    <dbl> <chr>      <dbl>           <dbl>       <dbl>
##  1 AL         307 EDGE         353            7.55        7.55
##  2 AL         307 13           353            7.28        7.55
##  3 AL         307 12           353            6.98        7.55
##  4 AL         307 11           353            6.73        7.55
##  5 AL         307 10           353            6.48        7.55
##  6 AL         307 9            353            6.22        7.55
##  7 AL         307 8            353            5.92        7.55
##  8 AL         307 7            353            5.44        7.55
##  9 AL         307 6            353            5.06        7.55
## 10 AL         307 5            353            4.37        7.55
## # ... with 304 more rows
```


```r
filter(fish, lakeid=="AL" | length > 350)
```

```
## # A tibble: 948 x 6
##    lakeid fish_id annnumber length radii_length_mm scalelength
##    <chr>    <dbl> <chr>      <dbl>           <dbl>       <dbl>
##  1 AL         299 EDGE         167            2.70        2.70
##  2 AL         299 2            167            2.04        2.70
##  3 AL         299 1            167            1.31        2.70
##  4 AL         300 EDGE         175            3.02        3.02
##  5 AL         300 3            175            2.67        3.02
##  6 AL         300 2            175            2.14        3.02
##  7 AL         300 1            175            1.23        3.02
##  8 AL         301 EDGE         194            3.34        3.34
##  9 AL         301 3            194            2.97        3.34
## 10 AL         301 2            194            2.29        3.34
## # ... with 938 more rows
```
…
```r
select(mammals, genus,mass,gestation,newborn)
```

```
## # A tibble: 1,440 x 4
##    genus          mass gestation newborn
##    <chr>         <dbl>     <dbl>   <dbl>
##  1 Antilocapra  45375       8.13   3246.
##  2 Addax       182375       9.39   5480 
##  3 Aepyceros    41480       6.35   5093 
##  4 Alcelaphus  150000       7.9   10167.
##  5 Ammodorcas   28500       6.8    -999 
##  6 Ammotragus   55500       5.08   3810 
##  7 Antidorcas   30000       5.72   3910 
##  8 Antilope     37500       5.5    3846 
##  9 Bison       497667.      8.93  20000 
## 10 Bison       500000       9.14  23000.
## # ... with 1,430 more rows
```
…
