…
```
## [1] "campus"            "academic_yr"       "category"         
## [4] "ethnicity"         "perc_fr"           "filtered_count_fr"
```

```r
uc_admit2<-uc_admit%>%
  mutate(percent_fr=str_replace(perc_fr, "%", ""))%>%
  select(campus, academic_yr, category, ethnicity, percent_fr, filtered_count_fr)%>%
  filter(ethnicity!="All")
uc_admit2
```

```
## # A tibble: 1,890 x 6
##    campus academic_yr category   ethnicity        percent_fr filtered_count_fr
##    <chr>        <dbl> <chr>      <chr>            <chr>                  <dbl>
##  1 Davis         2019 Applicants International    21.16                  16522
##  2 Davis         2019 Applicants Unknown          2.51                    1959
##  3 Davis         2019 Applicants White            18.39                  14360
##  4 Davis         2019 Applicants Asian            30.76                  24024
##  5 Davis         2019 Applicants Chicano/Latino   22.44                  17526
##  6 Davis         2019 Applicants American Indian  0.35                     277
##  7 Davis         2019 Applicants African American 4.39                    3425
##  8 Davis         2018 Applicants International    19.87                  15507
##  9 Davis         2018 Applicants Unknown          2.83                    2208
## 10 Davis         2018 Applicants White            18.96                  14797
## # ... with 1,880 more rows
```
…
