…
```r
virus2<-virus%>%
  separate(`Organism Groups`, into = c("domain","kingdom","subgroup"),sep=";")%>%
  filter(Level=="Complete")
virus2
```

```
## # A tibble: 32,211 x 18
##    `Organism Name`  domain  kingdom subgroup BioSample BioProject Assembly Level
##    <chr>            <chr>   <chr>   <chr>    <lgl>     <chr>      <chr>    <chr>
##  1 White spot synd~ Viruses Other   Nimavir~ NA        <NA>       GCA_000~ Comp~
##  2 Posavirus sp.    Viruses unclas~ unclass~ NA        <NA>       GCA_002~ Comp~
##  3 Hepatitis E vir~ Viruses Other   Hepevir~ NA        <NA>       GCA_000~ Comp~
##  4 Heterosigma aka~ Viruses Other   Marnavi~ NA        <NA>       GCA_000~ Comp~
##  5 Pyrococcus abys~ Viruses unclas~ unclass~ NA        <NA>       GCA_000~ Comp~
##  6 Marine RNA viru~ Viruses Other   Other    NA        <NA>       GCA_000~ Comp~
##  7 Tomato marchite~ Viruses Other   Secovir~ NA        <NA>       GCA_000~ Comp~
##  8 Ourmia melon vi~ Viruses Other   Botourm~ NA        <NA>       GCA_000~ Comp~
##  9 Epirus cherry v~ Viruses Other   Botourm~ NA        <NA>       GCA_000~ Comp~
## 10 Vibrio phage do~ Viruses Other   Podovir~ NA        PRJNA39215 GCA_000~ Comp~
## # ... with 32,201 more rows, and 10 more variables: Size(Mb) <dbl>, GC% <dbl>,
## #   Host <chr>, CDS <dbl>, Neighbors <dbl>, Release Date <dttm>,
## #   GenBank FTP <chr>, RefSeq FTP <chr>, Genes <dbl>, Scaffolds <dbl>
```
…
