…
```r
msleep%>%
  select(name, genus, order, vore)%>%
  filter(vore!="herbi"&vore!="carni")
```

```
## # A tibble: 25 x 4
##    name                       genus         order           vore   
##    <chr>                      <chr>         <chr>           <chr>  
##  1 Owl monkey                 Aotus         Primates        omni   
##  2 Greater short-tailed shrew Blarina       Soricomorpha    omni   
##  3 Grivet                     Cercopithecus Primates        omni   
##  4 Star-nosed mole            Condylura     Soricomorpha    omni   
##  5 African giant pouched rat  Cricetomys    Rodentia        omni   
##  6 Lesser short-tailed shrew  Cryptotis     Soricomorpha    omni   
##  7 North American Opossum     Didelphis     Didelphimorphia omni   
##  8 Big brown bat              Eptesicus     Chiroptera      insecti
##  9 European hedgehog          Erinaceus     Erinaceomorpha  omni   
## 10 Patas monkey               Erythrocebus  Primates        omni   
## # ... with 15 more rows
```
…
