…
#### 2. Use janitor to rename the columns and make them easier to use. As part of this cleaning step, change country, isscaap_group_number, asfis_species_number, and fao_major_fishing_area to data class factor.


```r
fisheries<-janitor::clean_names(fisheriess)
fisheries
```

```
## # A tibble: 17,692 x 71
##    country common_name isscaap_group_n~ isscaap_taxonom~ asfis_species_n~
##    <chr>   <chr>                  <dbl> <chr>            <chr>           
##  1 Albania Angelshark~               38 Sharks, rays, c~ 10903XXXXX      
##  2 Albania Atlantic b~               36 Tunas, bonitos,~ 1750100101      
##  3 Albania Barracudas~               37 Miscellaneous p~ 17710001XX      
##  4 Albania Blue and r~               45 Shrimps, prawns  2280203101      
##  5 Albania Blue whiti~               32 Cods, hakes, ha~ 1480403301      
##  6 Albania Bluefish                  37 Miscellaneous p~ 1702021301      
##  7 Albania Bogue                     33 Miscellaneous c~ 1703926101      
##  8 Albania Caramote p~               45 Shrimps, prawns  2280100117      
##  9 Albania Catsharks,~               38 Sharks, rays, c~ 10801003XX      
## 10 Albania Common cut~               57 Squids, cuttlef~ 3210200202      
## # ... with 17,682 more rows, and 66 more variables: asfis_species_name <chr>,
## #   fao_major_fishing_area <dbl>, measure <chr>, x1950 <chr>, x1951 <chr>,
## #   x1952 <chr>, x1953 <chr>, x1954 <chr>, x1955 <chr>, x1956 <chr>,
## #   x1957 <chr>, x1958 <chr>, x1959 <chr>, x1960 <chr>, x1961 <chr>,
## #   x1962 <chr>, x1963 <chr>, x1964 <chr>, x1965 <chr>, x1966 <chr>,
## #   x1967 <chr>, x1968 <chr>, x1969 <chr>, x1970 <chr>, x1971 <chr>,
## #   x1972 <chr>, x1973 <chr>, x1974 <chr>, x1975 <chr>, x1976 <chr>,
## #   x1977 <chr>, x1978 <chr>, x1979 <chr>, x1980 <chr>, x1981 <chr>,
## #   x1982 <chr>, x1983 <chr>, x1984 <chr>, x1985 <chr>, x1986 <chr>,
…
```r
fisheries$country<-as.factor(fisheries$country)
fisheries$isscaap_group_number<-as.factor(fisheries$isscaap_group_number)
fisheries$asfis_species_number<-as.factor(fisheries$asfis_species_number)
fisheries$fao_major_fishing_area<-as.factor(fisheries$fao_major_fishing_area)
fisheries
```

```
## # A tibble: 17,692 x 71
##    country common_name isscaap_group_n~ isscaap_taxonom~ asfis_species_n~
##    <fct>   <chr>       <fct>            <chr>            <fct>           
##  1 Albania Angelshark~ 38               Sharks, rays, c~ 10903XXXXX      
##  2 Albania Atlantic b~ 36               Tunas, bonitos,~ 1750100101      
##  3 Albania Barracudas~ 37               Miscellaneous p~ 17710001XX      
##  4 Albania Blue and r~ 45               Shrimps, prawns  2280203101      
##  5 Albania Blue whiti~ 32               Cods, hakes, ha~ 1480403301      
##  6 Albania Bluefish    37               Miscellaneous p~ 1702021301      
##  7 Albania Bogue       33               Miscellaneous c~ 1703926101      
##  8 Albania Caramote p~ 45               Shrimps, prawns  2280100117      
##  9 Albania Catsharks,~ 38               Sharks, rays, c~ 10801003XX      
## 10 Albania Common cut~ 57               Squids, cuttlef~ 3210200202      
## # ... with 17,682 more rows, and 66 more variables: asfis_species_name <chr>,
## #   fao_major_fishing_area <fct>, measure <chr>, x1950 <chr>, x1951 <chr>,
## #   x1952 <chr>, x1953 <chr>, x1954 <chr>, x1955 <chr>, x1956 <chr>,
## #   x1957 <chr>, x1958 <chr>, x1959 <chr>, x1960 <chr>, x1961 <chr>,
## #   x1962 <chr>, x1963 <chr>, x1964 <chr>, x1965 <chr>, x1966 <chr>,
## #   x1967 <chr>, x1968 <chr>, x1969 <chr>, x1970 <chr>, x1971 <chr>,
## #   x1972 <chr>, x1973 <chr>, x1974 <chr>, x1975 <chr>, x1976 <chr>,
## #   x1977 <chr>, x1978 <chr>, x1979 <chr>, x1980 <chr>, x1981 <chr>,
## #   x1982 <chr>, x1983 <chr>, x1984 <chr>, x1985 <chr>, x1986 <chr>,
…
fisheries_tidy$catch <- as.numeric(fisheries_tidy$catch)
```


#### 3. How many countries are represented in the data? Provide a count and list their names.


```r
fisheries%>%
  group_by(country)%>%
  count(country, sort=F)
```

```
## # A tibble: 204 x 2
## # Groups:   country [204]
##    country                 n
##    <fct>               <int>
##  1 Albania                67
##  2 Algeria                59
##  3 American Samoa         32
##  4 Angola                 88
##  5 Anguilla                3
##  6 Antigua and Barbuda    22
##  7 Argentina             140
##  8 Aruba                   5
##  9 Australia             301
## 10 Bahamas                14
## # ... with 194 more rows
```

#### 4. Refocus the data only to include only: `country`, `isscaap_taxonomic_group`, `asfis_species_name`, `asfis_species_number`, `year`, `catch`.


```r
fisheries%>%
  select(country, isscaap_taxonomic_group, asfis_species_name, asfis_species_number)
```

```
## # A tibble: 17,692 x 4
##    country isscaap_taxonomic_group     asfis_species_name     asfis_species_num~
##    <fct>   <chr>                       <chr>                  <fct>             
##  1 Albania Sharks, rays, chimaeras     Squatinidae            10903XXXXX        
##  2 Albania Tunas, bonitos, billfishes  Sarda sarda            1750100101        
##  3 Albania Miscellaneous pelagic fish~ Sphyraena spp          17710001XX        
##  4 Albania Shrimps, prawns             Aristeus antennatus    2280203101        
##  5 Albania Cods, hakes, haddocks       Micromesistius poutas~ 1480403301        
##  6 Albania Miscellaneous pelagic fish~ Pomatomus saltatrix    1702021301        
##  7 Albania Miscellaneous coastal fish~ Boops boops            1703926101        
##  8 Albania Shrimps, prawns             Penaeus kerathurus     2280100117        
##  9 Albania Sharks, rays, chimaeras     Scyliorhinus spp       10801003XX        
## 10 Albania Squids, cuttlefishes, octo~ Sepia officinalis      3210200202        
## # ... with 17,682 more rows
```
…
#### 6. Which country had the largest overall catch in the year 2000?


```r
fisheries%>%
  group_by(country)%>%
  select(country, x2000)%>%
  arrange(desc(x2000))
```

```
## # A tibble: 17,692 x 2
## # Groups:   country [204]
##    country            x2000
##    <fct>              <chr>
##  1 Ukraine            9998 
##  2 Thailand           9992 
##  3 Angola             999  
##  4 Russian Federation 998  
##  5 France             9968 
##  6 Pakistan           9961 
##  7 Ecuador            9930 
##  8 Australia          993  
##  9 United Kingdom     990  
## 10 Uruguay            990  
## # ... with 17,682 more rows
```
…
#### 8. Which five countries caught the most cephalopods between 2008-2012?


```r
fisheries%>% 
  filter(isscaap_taxonomic_group=="Squids, cuttlefishes, octopuses") %>% 
  count(asfis_species_name, sort=T)
```

```
## # A tibble: 35 x 2
##    asfis_species_name              n
##    <chr>                       <int>
##  1 Loliginidae, Ommastrephidae   182
##  2 Octopodidae                   147
##  3 Sepiidae, Sepiolidae          117
##  4 Loligo spp                     47
##  5 Illex argentinus               31
##  6 Illex illecebrosus             28
##  7 Cephalopoda                    23
##  8 Loligo gahi                    21
##  9 Octopus vulgaris               21
## 10 Sepia officinalis              21
## # ... with 25 more rows
```

#### 9. Which species had the highest catch total between 2008-2012? (hint: Osteichthyes is not a species)


```r
fisheries_tidy %>% 
  filter(year >= 2008, year <= 2012) %>% 
  select(country, isscaap_taxonomic_group, asfis_species_name, year, catch) %>% 
  group_by(country, asfis_species_name)
```

```
## # A tibble: 51,014 x 5
## # Groups:   country, asfis_species_name [9,238]
##    country isscaap_taxonomic_group    asfis_species_name  year catch
##    <fct>   <chr>                      <chr>              <dbl> <dbl>
##  1 Albania Sharks, rays, chimaeras    Squatinidae         2008    23
##  2 Albania Sharks, rays, chimaeras    Squatinidae         2009    14
##  3 Albania Sharks, rays, chimaeras    Squatinidae         2010    78
##  4 Albania Sharks, rays, chimaeras    Squatinidae         2011    12
##  5 Albania Sharks, rays, chimaeras    Squatinidae         2012     5
##  6 Albania Tunas, bonitos, billfishes Sarda sarda         2008    27
##  7 Albania Tunas, bonitos, billfishes Sarda sarda         2009    21
##  8 Albania Tunas, bonitos, billfishes Sarda sarda         2010    23
##  9 Albania Tunas, bonitos, billfishes Sarda sarda         2011    12
## 10 Albania Tunas, bonitos, billfishes Sarda sarda         2012     5
## # ... with 51,004 more rows
```
…
