…
```r
amniota%>%
  purrr::map_df(~sum(is.na(.)))%>%
  pivot_longer(everything(),
               names_to="variables",
               values_to="num_nas")%>%
  arrange(desc(num_nas))
```

```
## # A tibble: 36 x 2
##    variables                 num_nas
##    <chr>                       <int>
##  1 class                           0
##  2 order                           0
##  3 family                          0
##  4 genus                           0
##  5 species                         0
##  6 subspecies                      0
##  7 common_name                     0
##  8 female_maturity_d               0
##  9 litter_or_clutch_size_n         0
## 10 litters_or_clutches_per_y       0
## # ... with 26 more rows
```
…
```r
amniota_tidy %>% 
  purrr::map_df(~ sum(is.na(.))) %>% 
  pivot_longer(everything(),
    names_to= "variables",
    values_to = "num_nas") %>% 
  arrange(desc(num_nas))
```

```
## # A tibble: 36 x 2
##    variables                      num_nas
##    <chr>                            <int>
##  1 subspecies                       21322
##  2 female_body_mass_at_maturity_g   21318
##  3 female_svl_at_maturity_cm        21120
##  4 fledging_mass_g                  21111
##  5 male_svl_cm                      21040
##  6 no_sex_maturity_d                20860
##  7 egg_width_mm                     20727
##  8 egg_length_mm                    20702
##  9 weaning_weight_g                 20258
## 10 female_svl_cm                    20242
## # ... with 26 more rows
```
…
