…
```r
#So we make sure there are no hidden '-999's floating around in the second set of data. 
```


#### 6. Use the package `naniar` to produce a summary, including percentages, of missing data in each column for the `amniota` data.


```r
naniar::miss_var_summary(amniota_tidy)
```

```
## # A tibble: 36 x 3
##    variable                       n_miss pct_miss
##    <chr>                           <int>    <dbl>
##  1 subspecies                      21322    100  
##  2 female_body_mass_at_maturity_g  21318    100. 
##  3 female_svl_at_maturity_cm       21120     99.1
##  4 fledging_mass_g                 21111     99.0
##  5 male_svl_cm                     21040     98.7
##  6 no_sex_maturity_d               20860     97.8
##  7 egg_width_mm                    20727     97.2
##  8 egg_length_mm                   20702     97.1
##  9 weaning_weight_g                20258     95.0
## 10 female_svl_cm                   20242     94.9
## # ... with 26 more rows
```

#### 7.  Use the package `naniar` to produce a summary, including percentages, of missing data in each column for the `amphibio` data.


```r
naniar::miss_var_summary(amphibio)
```

```
## # A tibble: 38 x 3
##    variable n_miss pct_miss
##    <chr>     <int>    <dbl>
##  1 OBS        6776    100  
##  2 Fruits     6774    100. 
##  3 Flowers    6772     99.9
##  4 Seeds      6772     99.9
##  5 Leaves     6752     99.6
##  6 Dry_cold   6735     99.4
##  7 Vert       6657     98.2
##  8 Wet_cold   6625     97.8
##  9 Crepu      6608     97.5
## 10 Dry_warm   6572     97.0
## # ... with 28 more rows
```
…
```r
amphibio%>%
  group_by(Species)%>%
  select(Species, Fos, Ter, Aqu, Arb)%>%
  naniar::miss_var_summary(Fos=T, 
                           Ter=T, 
                           Aqu=T, 
                           Arb=T)
```

```
## # A tibble: 27,104 x 4
## # Groups:   Species [6,776]
##    Species             variable n_miss pct_miss
##    <chr>               <chr>     <int>    <dbl>
##  1 Allophryne ruthveni Fos           1      100
##  2 Allophryne ruthveni Ter           0        0
##  3 Allophryne ruthveni Aqu           0        0
##  4 Allophryne ruthveni Arb           0        0
##  5 Alytes cisternasii  Fos           1      100
##  6 Alytes cisternasii  Ter           0        0
##  7 Alytes cisternasii  Aqu           0        0
##  8 Alytes cisternasii  Arb           0        0
##  9 Alytes dickhilleni  Fos           1      100
## 10 Alytes dickhilleni  Ter           0        0
## # ... with 27,094 more rows
```
…
